{
    "app.component": {},
    "publist.component": {
        "Back": "Retour",
        "Adverts": "Annonces",
        "Price starts from": "Prix commence à partir de",
        "ADVERTISER": "ANNONCEUR",
        "CAMPAIGN TITLE": "TITRE DE LA CAMPAGNE",
        "Search latest adverts ....": "Rechercher dernières annonces ....",
        "per": "par",
        "EUR": "EUR",
        "REQUEST TO ADVERTISE NOW": "DEPOSER VOTRE PETITE ANNONCE"
    },
    "footer.component": {
        "Restaurants": "Restaurants",
        "Orders": "Les commandes",
        "Adverts": "Publicité",
        "More": "Plus"
    },
    "mpfooter.component": {
        "Restaurants": "Restaurants",
        "Orders": "Les commandes",
        "More": "Plus"
    },
    "layout.component": {},
    "createaccount.component": {
        "Create an Account": "Créer un Compte",
        "Back": "Retour",
        "SIGN UP": "INSCRIVEZ VOUS",
        "username": "Nom d'utilisateur",
        "password": "Mot de passe",
        "password confirmation": "Confirmation du mot de passe",
        "phone number": "Numéro de téléphone",
        "mobile phone number": "numéro de téléphone mobile"
    },
    "forgotpassword.component": {
        "Forgot Password": "Mot De Passe Oublié",
        "Back": "Retour",
        "Enter your email address and we will send you an email to reset your password": "Entrez votre adresse e-mail pour recevoir un email de réinitialisation de votre mot de passe",
        "SEND": "ENVOYER"
    },
    "login.component": {
        "Login": "Connexion",
        "Back": "Retour",
        "Remember me": "Se souvenir de moi",
        "CONNECT": "CONNECTER",
        "password": "Mot de passe",
        "Forgot password?": "Oublié le mot de passe?",
        "Create an account": "Créer un compte",
        "or": "ou"
    },
    "allbasket.component": {
        "Open Carts": "Acceder aux paniers",
        "Back": "Retour",
        "d/M/yy, h:mm a": "Jour/Mois/Année, h:mn",
        "Delivery Type": "Mode de commande",
        "Search": "Recherche"
    },
    "allorders.component": {
        "All My Orders": "Toutes Mes Commandes",
        "Pending": "En attente",
        "Accepted": "Accepté",
        "d/M/yy, h:mm a": "Jour/Mois/Année, h:mn",
        "Amount": "Montant",
        "Delivery Type": "Mode de commande",
        "Order Id": "Numéro De Commande",
        "Search": "Recherche"
    },
    "storeorder.component": {
        "Back": "Retour",
        "Orders": "Les commandes",
        "Cancel": "Annuler",
        "Active": "En cours",
        "Pending": "En attente",
        "History": "Historique",
        "Sort By": "Trier par",
        "Delivery type": "Mode de commande",
        "Date": "Date",
        "Date order for": "Date de commande pour",
        "Amount": "Montant",
        "Close": "Fermer",
        "Confirm": "Confirmer",
        "Find an order": "Retrouver une commande"
    },
    "storeorder-details.component": {
        "Orders": "Les commandes",
        "Cancel Order": "Annuler La Commande",
        "Are you sure you want to cancel this order?": "Êtes-vous sûr de vouloir annuler cette commande?",
        "Go back": "Revenir en arrière",
        "Confirm": "Confirmer",
        "Detach table": "Retirer de la table",
        "Are you sure you want to detach your order to this table": "Êtes-vous sûr de vouloir retirer votre commande de cette table",
        "Leave a review": "Laisser un avis",
        "Rate this restaurant": "Notez ce restaurant",
        "Cancel": "Annuler"
    },
    "expresscheckout.component": {
        "Back": "Retour",
        "Express Checkout": "Paiement express",
        "Confirm": "Confirmer",
        "EUR": "EUR",
        "Before payment, please select your information details": "Avant le paiement, veuillez préciser quelques informations",
        "Pay 100%": "Payer la totalité",
        "Divide by": "Diviser par",
        "Pay amount": "Montant à payer",
        "Paying parties": "Partager",
        "Leave a comment for the restaurant about your payment if necessary": "Laisser un commentaire pour le restaurant au sujet de votre paiement si nécessaire",
        "Terms of Service": "Conditions d'utilisation du service",
        "Service type (ie Pay and Collect)": "Mode de commande (c'est à dire A emporter)",
        "Terms of Service description": "Description des conditions d'utilisation",
        "Close": "Fermer",
        "e.g: add an address to your invoice ...": "Ex: Ajouter une adresse de facturation ...",
        "select your items": "sélectionnezvos articles"
    },
    "paycard.component": {
        "Transaction approved": "Validation du paiement",
        "font-size: small;font-family: ": "font-size: small;font-family: ",
        "dd/MMMM/yy": "Jour/Mois/Année",
        "Payment reference:": "Référence de paiement:",
        "Payment method:": "Méthode de paiement:",
        "paymentMethod!=": "Méthode de paiement!=",
        "Card type:": "Type de carte:",
        "Credit Card:": "Carte De Crédit:",
        "with a proof of payment receipt.": "avec une preuve de la réception du paiement.",
        "Your order is now getting prepared!": "Votre commande est maintenant en cours de préparation!",
        "See you soon!": "A très bientôt!",
        "Close": "Fermer",
        "Transaction NOT approved": "Le paiement n'est PAS accepté",
        "Back": "Retour",
        "Total amount of the order to pay": "Montant total de la commande",
        "EUR": "EUR",
        "CONFIRM": "CONFIRMER",
        "An email was sent to your address": "Un e-mail a été envoyé à votre adresse email",
        "THANK YOU for using our application": "MERCI d'avoir utilisé notre application",
        "There was an issue with your payment. Please try again or call your bank to verify that all is fine.": "Il y a un problème avec votre paiement. Veuillez essayer de nouveau ou contactez votre banque pour vérifier que tout est en ordre.",
        "Save this Credit Card": "Enregistrer cette Carte de Crédit"
    },
    "paycollect.component": {
        "Back": "Retour",
        "Pay and Collect": "A emporter",
        "Continue": "Continuer",
        "Before payment, please select your collection details": "Avant le paiement, veuillez préciser un certain nombre de détails",
        "Terms of Service": "Conditions d'utilisation du service",
        "Service type (ie Pay and Collect)": "Mode de commande (c'est à dire A emporter)",
        "Terms of Service description": "Description de l'utilisation du service",
        "Close": "Fermer",
        "Add other information relating to your order (e.g: no cheese, allergies the restaurant may need to be informed about ...)": "Ajoutez d'autres informations relatives à votre commande (Ex: pas de fromage, les allergies, etc ...)",
        "e.g: no cheese in my burger, nuts allergy...": "e.g: pas de fromage dans mon burger, noix allergie...",
        "Receive a SMS when your order is ready (free)": "Recevoir un SMS lorsque votre commande est prête (gratuit)"
    },
    "paydeliver.component": {
        "Back": "De retour",
        "Pay and Deliver": "A livrer",
        "Continue": "Continuer",
        "Before payment, please select your delivery details": "Avant le paiement, veuillez préciser vos détails de livraison",
        "Receive the delivery time by SMS (free)": "Recevoir le délai de livraison par SMS (gratuit)",
        "Use the address set by default": "Utiliser cette adresse par défaut",
        "Use a saved address": "Utiliser une adresse enregistrée",
        "Enter a new address": "Enregistrer une nouvelle adresse",
        "Add additional delivery information.": "Ajoutez d'autres informations de livraison.",
        "|translateAuto:utilSvc.fake| async": "|translateAuto:utilSvc.faux| async",
        "Add other information relating to your order (e.g: no cheese, allergies the restaurant may need to be informed about ...)": "Ajoutez d'autres informations relatives à votre commande (Ex: pas de fromage, les allergies, etc...)",
        "Terms of Service": "Conditions d'utilisation du service",
        "Service type (ie Pay and Collect)": "Mode de commande (c'est à dire A livrer)",
        "Terms of Service description": "Description de l'utilisation du service",
        "Close": "Fermer",
        "Name": "Nom",
        "Phone number": "Numéro de téléphone",
        "e.g: entry code, stairs, the bell does not work ...": "Ex: le code d'entrée, les escaliers, la sonnette ne fonctionne pas ...",
        "e.g: no cheese in my burger, nuts allergy...": "Ex: pas de fromage dans mon burger, allergique aux noix, etc ..."
    },
    "paydine.component": {
        "Back": "Retour",
        "Pay and Dine": "Réserver",
        "Continue": "Continuer",
        "Before payment, please select your booking details": "Avant le paiement, veuillez préciser les détails de votre réservation",
        "How many places?": "Combien de personnes?",
        "Receive a reminder SMS 1 hour before your booking (free)": "Recevoir un rappel par SMS 1 heure avant votre réservation (gratuit)",
        "Add other information relating to your order (e.g: no cheese, allergies the restaurant may need to be informed about ...)": "Ajoutez d'autres informations relatives à votre commande (Ex: pas de fromage, les allergies, etc ...)",
        "|translateAuto:utilSvc.fake| async": "|translateAuto:utilSvc.faux| async",
        "Terms of Service": "Conditions d'utilisation du service",
        "Service type (ie Pay and Dine)": "Mode de commande (c'est à dire Reserver)",
        "Terms of Service description": "Description de l'utilisation du service",
        "Close": "Fermer",
        "Phone number": "Numéro de téléphone",
        "e.g: no cheese in my burger, nuts allergy...": "Ex: pas de fromage dans mon burger, allergique aux noix, etc ..."
    },
    "paymentMethod.component": {
        "Back": "Retour",
        "Payment": "Paiement",
        "Confirm &\r Pay": "Confirmer et Payer",
        "EUR": "EUR",
        "Choose now how you would like to pay": "comment souhaitez vous payer",
        "Credit / debit card": "Carte de crédit",
        "paymentSvc.mainSvc.adnCustomerUser.paymentGw[": "paymentSvc.mainSvc.adnCustomerUser.paymentGw[",
        "Use an existing     card": "Choix de la carte",
        "Add a Credit Card": "Ajouter une carte de crédit",
        "let card of paymentSvc.mainSvc.adnCustomerUser.paymentGw[": "Garder la carte de paymentSvc.mainSvc.adnCustomerUser.paymentGw[",
        "Cash / Restaurants tickets": "Espèces / tickets Restaurants",
        "Cash": "Espèces",
        "Restaurant tickets": "Restaurant tickets",
        "Would you like to leave a tip?": "Voulez-vous laisser un pourboire?",
        "Yes": "Oui",
        "No": "Non",
        "Transaction approved": "Paiement validé",
        "font-size: small;font-family: ": "font-size: small;font-family: ",
        "dd/MMMM/yy": "Jour/Mois/Année",
        "hh:mm": "h:mn",
        "Payment reference:": "Référence Paiement:",
        "Payment method:": "Mode de paiement:",
        "paymentMethod!=": ":Mode de paiement!=",
        "Card type:": "Type de carte:",
        "Credit   Card:": "Crédit Carte:",
        "An email was sent to your address": "Un E-mail a été envoyé à votre adresse",
        "with a proof of payment receipt.": "avec une preuve de reception du paiement.",
        "Close": "Fermer",
        "Transaction NOT approved": "Paiement NON accepté",
        "There was an issue with your payment. Please try again or call your bank to verify that all is fine.": "Il y a un problème avec votre paiement. Veuillez essayer de nouveau ou contactez votre banque pour vérifier tout est en ordre.",
        "THANK YOU for using our application": "MERCI d'avoir utilisé notre application",
        "See you soon!": "A très bientôt!",
        "€ amount": "€ montant",
        "Confirm &  Pay": "Confirmer et Payer",
        "Restaurant     tickets": "Restaurant les billets"
    },
    "home.component": {
        "My actual location": "Ma position actuelle",
        "All": "Tous",
        "In House": "Sur place",
        "Collect": "Emporter",
        "Deliver": "Livrer",
        "Find Restaurants": "Trouver un restaurant",
        "Scan Restaurant QR Code": "Code QR du restaurant",
        "Or enter Street / City / Post code ...": "Ou entrer le nom de la Rue / Ville / Code postal ..."
         
    },
    "scanqrcode.component": {
        "Back": "Retour",
        "Scan QR code": "Numérisez le code QR",
        "ACTIVATE": "ACTIVER"
         
    },
    "showqrcode.component": {
        "Back": "Retour"
    },
    "restaurantfilter.component": {
        "Reset": "Réinitialiser",
        "Confirm": "Confirmer",
        "restaurants": "Restaurants",
        "Promotions": "Promotions",
        "pagesSvc.additionalFilter[": "pagesSvc.additionalFilter[",
        "Free Delivery": "Livraison gratuite",
        "Opened": "Ouvert",
        "New": "Nouveau",
        "How far from your position do you want to select a restaurant?": "Rayon de recherche par rapport à ma position actuelle?",
        "What": "Ce",
        "Filter": "Filtre"
         
    },
    "restaurantslist.component": {
        "Back": "Retour",
        "Restaurants": "Restaurants",
        "sorted by": "trié par",
        "searchToggle=false;searchedRestaurant=": "searchToggle=false;searchedRestaurant=",
        "Cancel": "Annuler",
        "View all specialities": "Afficher les types de restaurant",
        " restaurants are meeting the search criteria": " Restaurants de même type",
        "let resto of stores | filterGenericPS:": "Enregistrer ce restaurant | filterGenericPS:",
        "1.2-2": "1.2-2",
        "EUR": "EUR",
        "Sort By": "Trier par",
        "Alphabetical": "Ordre Alphabétique (a->z)",
        "Distance": "Distance",
        "Rating": "Notation",
        "Price level": "Fourchette de prix",
        "Number of reviews": "Nombre de commentaires",
        "Close": "Fermer",
        "Confirm": "Confirmer",
        "restaurants are meeting the search criteria": "les restaurants sont rencontre les critères de recherche",
        "Find a restaurant": "Trouver un restaurant"
    },
    "restaurantspecialities.component": {
        "Reset": "Réinitialiser",
        "Sort by Specialities": "Trier par type de restaurant",
        "Cancel": "Annuler",
        "View Restaurants": "Afficher les restaurants",
        "Common specialities": "Restaurant similaires",
        "Other specialities": "Autres types de restaurant"
         
    },
    "cookies.component": {
        "Close": "Fermer",
        "Cookies": "Les Cookies",
        "In order to recognize you immediately during your next visit and to improve your user    experience we use cookies.": "Afin de vous reconnaître lors de votre prochaine visite et d'améliorer votre utilisateur l'expérience nous utilisons des cookies.",
        "A cookie is a small file which does not identify you, but records information relating to    navigation and allows you to benefit from our offers.": "Un cookie est un petit fichier qui ne permettent pas de vous identifier, mais qui enregistre des informations relatives à la navigation et vous permet de bénéficier de nos offres.",
        "The data thus obtained is intended to facilitate navigation. The refusal to    install a cookie may result in the impossibility of accessing certain services.": "Les données ainsi obtenues visent à faciliter la navigation. Le refus de installation d'un cookie peut entraîner l'impossibilité d'accéder à certains services."
    },
    "faq.component": {
        "Close": "Fermer",
        "My account": "Mon compte",
        "How to register and enjoy the benefits of being able to place my orders online?": "Comment faire pour s'inscrire et profiter des avantages de la commande en ligne?",
        "You must register in 2 clicks via a form<br>Just register a name, an email address and a password<br>": "Vous devez vous inscrire en 2 clics via un formulaire<br>Il suffit d'inscrire un nom, une adresse E-mail et un mot de passe<br>",
        "I can not find the establishment I": "Je ne trouve pas l'établissement I",
        "This establishment is not yet part of our network. You have the opportunity to tell him about the benefits that can provide this type of approach and how easy it is to place your orders": "Cet établissement ne fait pas encore partie de notre réseau. Vous avez la possibilité de lui parler des avantages que peut offrir ce type d'approche et comment il est facile de passer des commandes",
        "Where can I find the details and the history of my orders?": "Où puis-je trouver les détails et l'historique de mes commandes?",
        " section": " section",
        "How to modify your personal information?": "Comment faire pour modifier vos informations personnelles?",
        ". You have the possibility to modify your personal data: phone number, password, contact details, delivery information, etc.": ". Vous avez la possibilité de modifier vos données personnelles: numéro de téléphone, mot de passe, informations de contact, livraison , etc.",
        "How to delete your account?": "Comment faire pour supprimer votre compte?",
        "My orders": "Mes commandes",
        "How to place my first order on Kamli?": "Comment passer ma première commande sur Kamli eats?",
        "Once you have selected your establishment, simply choose your products and/or services and validate your order": "Une fois que vous avez sélectionné votre établissement, il suffit de choisir vos produits et/ou services et de valider votre commande",
        "How do I know if my order is confirmed?": "Comment puis-je savoir si ma commande est confirmée?",
        "When you": "Lorsque vous",
        "<br>": "<br>",
        "I would like to modify my order or cancel it. How can I do it?": "Je voudrais modifier ma commande ou l'annuler. Comment puis-je faire?",
        "To modify an order not validated by the merchant, nothing more simple! You simply need to reconnect to your account, to cancel your order and to redo your choices<br>If your order has been confirmed, it is best to contact the merchant either by e-mail, phone or chat to tell him if the changes can be made<br>": "Pour modifier une commande qui n'est pas encore validée par le commerçant, rien de plus simple! Il suffit simplement de vous reconnecter à votre compte, d'annuler votre commande et de renouveller vos choix<br>Si votre commande a été confirmé, il est préférable de contacter le commerçant soit par E-mail, téléphone ou chat et lui demander si des modifications sont possibles<br>",
        "I would like to add dishes to an order already made?": "Je voudrais ajouter des plats à une commande déjà effectuée?",
        "You have the option to use your current order number to add products to an existing order. However the confirmation procedure by the merchant is the same to validate this new request<br>": "Vous avez la possibilité d'utiliser votre numéro de commande pour ajouter des produits à une commande en cours. Toutefois, la procédure de confirmation par le commerçant est la même pour valider cette nouvelle demande<br>",
        "I do not receive a confirmation of my order": "Je n'ai pas reçu de confirmation de ma commande",
        "You have checked the availability of the merchant, your order has been finalized but you didn": "Vous avez vérifié la disponibilité du commerçant, votre commande a été finalisé, mais vous rien ne se passe",
        "Do I have to expect additional charges on my order?": "Dois-je prévoir des frais supplémentaires pour ma commande?",
        "The only costs that can be added are those related to the delivery and they are indicated in the total of your order.<br>There are no management fees charged from us.<br>": "Les seuls frais qui peuvent être ajoutés sont ceux liés à la livraison et ils sont indiqués dans le total de votre commande.<br>Il n'y a aucun frais de gestion facturés de notre part.<br>",
        "I am not satisfied with my order. How to do?": "Je ne suis pas satisfait de ma commande. Que puis je faire?",
        "We may advise you to contact the merchant to let him know your dissatisfaction and find a solution<br>": "Nous vous conseillons de contacter le commerçant pour lui expliquer votre insatisfaction et trouver une solution<br>",
        "I am allergic, how to know the composition of products?": "Je suis allergique, comment connaître la composition des produits?",
        "The establishment has the obligation to specify the allergens contained in each product. A list must be made available to you if you are on site.<br>For a delivery or collection order, allergens can be specified on the website or the application, but it all depend on the goodwill of the merchant to inform them.<br>In case of failure and in order to have no doubt, we advise you to contact the merchant directly<br>": "L'établissement a l'obligation d'indiquer les allergènes contenus dans chaque produit. Une liste doit être mis à votre disposition si vous êtes sur place.<br>Pour emporter ou en livraison de la commande, les allergènes peuvent être précisés sur le site ou sur l'application, mais tout dépend de la bonne volonté du commerçant de positionner l'information.<br>En cas de  doute, nous vous conseillons de contacter le commerçant directement<br>",
        "How to make a special request for my order?": "Comment faire une demande particulière pour ma commande?",
        "The chat built into the Kamli application is a very practical way to pass your various messages, special order, complaint, suggestions, opinion, contribution, etc ...<br>": "Le Chat intégré dans l'application Kamli eats est un moyen très pratique de passer vos différents messages, commandes spéciales, plaintes, suggestions, avis, contributions, etc ...<br>",
        "Why do I have to keep an available phone line after placing my order?": "Pourquoi dois-je rester joignable par téléphone après avoir passé ma commande?",
        "Sometimes the merchant is temporarily out of one of the products ordered, with the obligation to increase the delivery time or unable to deliver. He will have to contact you in order to let you know and try to find a solution that suits you.<br>You will be immediately notified about the problem encountered.": "Parfois, le commerçant est temporairement en rupture de l'un des produits commandés, et se voit dans l'obligation d'augmenter le délai de livraison ou de l'impossibilité de livrer. Il pourra vous contacter afin de vous permettre de connaître et essayer de trouver une solution qui vous convient.<br>Vous serez averti immédiatement du problème rencontré.",
        "Delivery": "Livraison",
        "I": "J'",
        "The merchant does his best to deliver your order on time. During peak hours, however, your delivery may take a little longer. Weather (rain, snow) or an unexpected event (accident etc.) can also cause delays.<br><br>In addition, some restaurants use delivery providers, which makes estimation more difficult.<br><br>However, you can contact the merchant directly to be informed about the delay.<br>": "Le commerçant fait de son mieux pour livrer votre commande à temps. Certaines tranches horaires, cependant, votre livraison peut prendre un peu plus longtemps. La météo (pluie, neige) ou un événement inattendu (accident, etc.) peut aussi causer des retards.<br><br> Certains restaurants utilisent des sociétés de livraison qui rendent l'estimation plus difficile.<br><br>Cependant, vous pouvez contacter le commerçant directement pour être informé du retard.<br>",
        "Who takes care of my delivery?": "Qui s'occupe de ma livraison?",
        "Each business that offers home delivery use mostly its own delivery system. Some stores, however, use a provider who then handles deliver orders.<br>": "Chaque commerçant qui propose la livraison à domicile utilise souvent son propre système de livraison. Certains commerce, cependant, font appel à un prestataire qui gère ensuite les livraisons des commandes.<br>",
        "How much cost a delivery?": "Combien coûte la livraison?",
        "Each establishment offers different formulas specified in mode and delivery schedules. Many people offer this service for free<br>": "Chaque commerçant propose différentes formules spécifiées dans le mode de livraison avec le choix d'horaires. Beaucoup de commerçants proposent ce service gratuitement<br>",
        "Payment / Refund": "Paiement / Remboursement",
        "What are the payment options available ?": "Quelles sont les options de paiement disponibles ?",
        "All payment methods are accepted:<br>• Online payment (credit card, paypal, restaurant ticket, apple pay, etc.)<br>• On-site payment with the usual business payment methods<br><br>You can place as well your order away and pay locally depending on the choice you have selected at the time of your order (cash, ticket restaurant, CB). But this can cause an additional risk of waiting<br>": "Toutes les méthodes de paiement sont acceptés:<br>• Paiement en ligne (carte de crédit, paypal, ticket restaurant, apple pay, etc.)<br>• Paiement sur place avec les méthodes de paiement habituelles<br><br>Vous pouvez préparer votre commande et payer sur place selon le choix que vous avez sélectionné au moment de votre commande (Espèces, tickets restaurant, CB). Mais cela peut entraîner un risque d'attente supplémentaire<br>",
        "Refund of a canceled order<br>": "Remboursement d'une commande annulée<br>",
        "As long as the merchant has not confirmed your order, your payment is not taken. It will not be debited to you.<br>However, if he has validated your order, he only has the possibility to grant you this refund. Generally it depends on your payment method and simply reccredit your account through this intermediary. But he can also offer you a voucher corresponding &nbsp;to the value of your order.<br>This can only be by mutual agreement with the merchant according to different criteria, including respect for perishable products or the deadline<br>": "Tant que le marchand n'a pas confirmé votre commande, votre paiement n'est pas pris en compte. Il ne sera pas débité.<br>Cependant, si le commerçant a confirmé votre commande, il aura la possibilité de vous accorder un remboursement. En général, cela dépend de votre méthode de paiement pour recréditer votre compte par cet intermédiaire. Mais il peut aussi offrir  un bon d'achat correspondant à la valeur de votre commande.<br>Ce ne peut être, que d'un commun accord avec le commerçant en fonction de différents critères, notamment le respect de la qualité des produits périssables ou la date limite de consommation<br>",
        "Is there a minimum order amount?<br>": "Existe t'il un montant minimum de commande?<br>",
        "The minimum order, if this is the case, depends on each establishment. You will find this information on the business website page. It is also included in your basket as if the minimum order is not reached, you will not be able to finalize it and access the payment.<br>": "Le minimum de commande, si c'est le cas, dépend de chaque commerce. Vous trouverez cette information sur le site web du commerce. Il est également visible dans votre panier, et si le commande minimum n'est pas atteint, vous ne serez pas en mesure de finaliser et accéder au paiement.<br>",
        "Can I combine orders from different restaurants?<br>": "Puis-je combiner les commandes à partir de différents restaurants?<br>",
        "Yes. You can order in several restaurants at once and validate your total basket.<br>If you wish to place an order in other restaurants, additional fees related to the differentiations of each business may be taken.<br>": "Oui. Vous pouvez commander dans plusieurs restaurants à la fois et valider le total de votre panier.<br>Si vous souhaitez passer une commande dans d'autres commerces, des frais supplémentaires liés à la différenciation de chaque commerce peuvent être prises en compte.<br>",
        "When will the money be deducted from my account?": "Quand l'argent sera t'il débité de mon compte?",
        "When you receive the order confirmation from the business, your payment is put on hold and will be debited either:<br>- At time of the delivery<br>- With the withdrawal of your products on site<br>- At time of your departure if you have consumed on site<br>": "Lorsque vous recevez la confirmation de la commande par le commerçant, votre paiement est mis en attente et sera débité soit:<br>- Au moment de la livraison<br>- Au moment du retrait de votre  commande à emporter<br>- Au moment de votre départ, si vous avez consommé sur place<br>",
        "Is online payment secure?": "Le paiement en ligne est sécurisé?",
        "If you choose to pay your order online, your bank details are encrypted and protected via Stripe (SSL (Secure Socket Layers) system compliant with the European DSP2 directive and strong client authentication).<br>We guarantee the security of all your payments online.<br>Kamli eats is never aware of the information you have to enter.<br>": "Si vous choisissez de payer votre commande en ligne, vos coordonnées bancaires sont cryptées et protégée par Bande (SSL (Secure Socket layers) conforme au système Européen de DSP2 directive et de forte authentification du client).<br>Nous garantissons la  sécurité de tous vos paiements en ligne.<br>Kamli n'est jamais au courant des données bancaires que vous avez ajoutées.<br>",
        "You have downloaded the application ": "Vous avez téléchargé l'application ",
        " or you are connected to the website ": " ou vous êtes connecté sur le site ",
        "You must register in 2 clicks via a form. Just register a name, an email address and a password": "Vous devez vous inscrire en 2 clics via un formulaire. Il suffit de s'inscrire un nom, une adresse email et un mot de passe"
    },
    "language.component": {
        "font-family: ": "font-family: ",
        "Language": "Langue",
        "Settings": "Paramètres",
        "Save": "Enregistrer",
        "settingsSvc.utilSvc.language=": "settingsSvc.utilSvc.langue="
         
    },
    "legalnotice.component": {
        "Legal Notices": "Mentions légales",
        "Settings": "Paramètres",
        "End Customer License": "Fin du contrat de licence client",
        "Terms and Conditions": "Termes et conditions",
        "Privacy Policy": "Politique de confidentialité"
    },
    "license.component": {
        "font-family: ": "font-family: ",
        "End Customer License": "Fin du contrat de licence client",
        "Close": "Fermer",
        "Date of the last update on: 12/03/19": "Date de la dernière mise à jour le: 12/03/19",
        " Application on your terminal and / or accessing the Application, as a visitor and / or user, you accept unconditionally and without reservation all the terms and conditions set out below. If you do not wish to accept these Terms, we ask you not to access the Application. Any visit and / or use of the Application must comply with these Terms.": " En installant l'Application Kamli eats sur votre terminal et / ou en accédant à l'Application, en tant que visiteur et / ou utilisateur, vous acceptez sans condition et ni reserve l'intégralité des CGU définies ci après. Si vous ne souhaitez pas accepter les présentes CGU, nous vous demandons de ne pas accéder à l'Application. Toute visite et / ou utilisation de l'Application doit se faire dans le respect des présentes CGU.",
        "Article 1 - Definitions": "Article 1 - Définitions",
        " means a natural person of age or majority who has previously obtained the authorization of his parents or the person having parental authority, and who has downloaded the Application for his own needs, for a strictly personal use. and non-commercial, not-for-profit direct or indirect.": " Utilisateur désigne une personne physique,  majeure ou mineure ayant obtenu au préalable l'autorisation de ses parents ou de la personne investie de l'autorité  parentale, et ayant téléchargé l'Application pour ses besoins propres, dans le cadre d'un usage strictement personnel et non commercial, ,sans but lucratif direct ou indirect.",
        "Article 2 - Geolocation": "Article 2 - Géolocalisation",
        "The use of the geolocation feature of the Application requires the express prior consent of the user to be geolocated. For this the User must activate, if desired, the geolocation function directly in the settings of his mobile terminal and accept that the Application may use it. This feature can, at any time, and without charge, be disabled or activated by the User.": "L'utilisation de la fonctionalité de géolocalisation de  l'Application nécessite le consentement préalable express de l'utilisateur à être géolocalisée. Pour cela, l'utilisateur devra activer, s'il le souhaite, la fonction de géolocalisation directement dans les paramètres de son terminal mobile et accepter que l'Application puisse y avoir recours. Cette fonctionnalité peut, à tout moment, et sans frais, être désactivée ou activée par l'utilisateur.",
        "Article 3 - Financial conditions": "Article 3 - Conditions financières",
        "Kamli is offered free of charge to the User, excluding subscription costs, from the mobile operator, excluding connection costs and access to the Internet and any additional costs charged for data loading.": "Kamli est proposé gratuitement à l'utilisateur, hors coûts d'abonnemnt auprès de l'opérateur de téléphonie mobile, et hors surcoût éventuel facturé pour le chargement de données.",
        "Article 4 - Application of the Terms": "Article 4 - Application des CGU",
        "The Terms are applicable to any Kamli User. The User is invited to read carefully and at each visit the Terms that are accessible by hyperlink on the home page of the Application and may be modified at any time and without notice by All Digital Network.<br>The Application may be updated regularly.": "Les CGU sont applicables à tous les utilisateurs de Kamli eats. L'Utilisateur est invité à lire attentivement et à chaque visite, les CGU qui sont accessibles par lien hypertexte sur la page d'accueil de l'Application et susceptibles d'être modifiées à tout moment et sans préavis par Kamli.net.<br>L'Application pourra faire l'objet d'une mise à jour régulière.",
        "Article 5 - Intellectual property of the application": "Article 5 - Propriété intellectuelle de l'application",
        "All Digital Network is the exclusive owner of all the intellectual property rights related to the Kamli Application, none of the provisions of the GCU can be interpreted as an assignment, a transfer, a sale, a concession, a license, a loan, a rental , an operating license granted directly or indirectly by All Digital Network for the benefit of the User on the Application its Content and / or Services.": "Kamli.net est le propriétaire exclusif de tous les droits de propriété intellectuelle afférents à l'Application Kamli, aucune des dispositions des CGU ne peut être interprétées comme une cession, un transfert, une vente, une concession, une licence, un prêt, une location , une autorisation d'exploitation consentie directement ou indirectement, par Kamli.net au profit de l'Utilisateur sur l'Application, son Contenu et / ou les Services.",
        "Article 6 - License of use": "Article 6 - Licence d'utilisation",
        "All Digital Network grants to the User a personal right to use the Application, the Content and the Services, non-exclusive, revocable, non-transferable, non-transferable, worldwide and free only for his own needs within the framework of the use of the Application and Services, to the exclusion of any other purpose.<br><br>It is strictly forbidden for the User to access and / or use the source code of the Application and / or the software components of the Application. The User does not acquire any intellectual property rights in the Application, the Content and / or the Services or any rights other than those conferred by the present. This license does not confer any right of use on the Content by the User. The User is therefore prohibited from reproducing, representing, adapting and / or exploiting the one and the other Content. The User expressly undertakes that the use of the Application does not in any way affect the rights of All Digital Network, and in particular that such use does not constitute an act of counterfeiting, unfair or parasitic competition content.": "Kamli.net concéde à l'Utilisateur un droit personnel d'utilisation de l'Application, ldu Contenu et des Services, non-exclusif, révocable, non-transférable, mondiale et gratuit uniquement pour ses  besoins propres dans le cadre de l'utilisation de l'Application et des Services, à l'exclusion de toute autre finalité.<br><br>Il est strictement interdit à l'Utilisateur d'accéder et / ou utiliser les codes source de l'Application et / ou le logiciel les composants de l'Application. L'Utilisateur n'acquiert aucun droits de propriété intellectuelle sur l'Application, le Contenu et / ou les Services ni aucun autre droit conférés par les présentes. Cette licence ne confère aucun droit d'utilisation à l'Utilisateur sur le Contenu . L'Utilisateur s'interdit donc de reproduire, représenter, adapter et / ou l'exploitation l'un et l'autre des Contenus. L'Utilisateur s'engage expressément que l'utilisation de l'Application ne porte en aucun cas atteinte aux droits de Kamli.net, et notamment, que cette utilisation ne constitue pas un acte de contrefaçon, de concurrence déloyale ou parasitaire du contenu.",
        "Article 7 - Users obligations": "Article 7 - Obligations de l'Utilisateur",
        ") of all or part of the Application, Services and / or Content.<br>&nbsp;- not to export the Application, to merge all or part of the Application with other computer programs.<br>&nbsp;- to make short quotations, analyzes and reproductions for press reviews and other uses expressly authorized by law within the limits and conditions laid down by the law and subject, inter alia, to mentioning the names of the authors and the editorial source<br>&nbsp;- to expressly waive the use of software or devices likely to disrupt the proper functioning of the Application, or to take any action likely to impose a disproportionate burden on the infrastructures of All Digital Network.<br>&nbsp;- not to extract or reuse, including for private purposes, without the prior written permission of All Digital Network, a substantial part or not of the contents of databases and archives constituted by the Application.<br>&nbsp;- not to put in place systems likely to hack the Application and / or the Content in whole or in part, or likely to violate these Terms.<br>&nbsp;- to inform All Digital Network as soon as it becomes aware of an act of piracy and in particular any unlawful or non-contractual use of the Application and / or the Content regardless of the method of dissemination.<br>&nbsp;- not to sell, rent, sublicense or otherwise distribute the Application and / or Content to third parties.": ") L'Utilisateur s'engage expressément: <br> - à ne pas reproduire de façon permanente ou provisoire l'Application, en tout ou partie, et par tout moyen et sous toutes ses formes <br> - à ne pas utiliser de logiciels ou de procédés destinés à copier le contenu sans autorisation préalable écrite de Kamli.net <br> - à ne pas procéder à toute adaptation, modification, traduction, transcription, arrangement, compilation, décompilation, assemblage, désassemblage, trancodage, ni appliquer la rétro-ingénierie de tout ou partie de l'Application, des Services et / ou du Contenus.<br> - à ne pas exporter de l'Application, de fusionner tout ou partie de l'Application avec d'autres programmes informatiques.<br> - à ne pas procéder à de courtes citations, analyse et reproductions destinées à des revues de presse ainsi qu'aux autres utilisations expressément autorisées par la loi dans les limites et conditions fixées par cette dernière et sous réserve, notamment, de mentionner les noms des auteurs et la sourceéditorial <br> - à renoncer expressément à utiliser un logiciel ou dispositifs susceptibles de perturber le bon fonctionnement de l'Application, ni à engager d'action de nature à imposer une charge disproportionnée pour les infrastructures de Kamli.net  <br> - à ne pas extraire ou réutiliser, y compris à des fins privées, sans autorisation préalable écrite  de Kamli.net , une partie substantielle ou non du contenu des bases de données et archives constituées par l'Application.<br> - à ne pas mettre en place des systèmes susceptibles de pirater l'Application et / ou le Contenu, en tout ou en partie, ou de nature à violer  les présentes CGU.<br> - à informer Kamli.net dès qu'il a connaissance d'un acte de piratage et en particulier de toute utilisation illicite ou non-contractuelle de l'Application et / ou du Contenu quel que soit le mode de de diffusion.<br> - à ne pas vendre, louer, sous-licencier ou distribuer de quelque façon que se soit l'Application et / ou Contenu à des tiers.",
        "Article 8 - Availability of the application": "Article 8 - Disponibilité de l'application",
        "All Digital Network is committed to making its best efforts to secure access, consultation and use of the Application Services.<br><br>The Application is accessible 24 hours a day, 7 days a week, except in case of force majeure or the occurrence of an event beyond the control of All Digital Network and subject to any breakdowns and maintenance operations necessary for the proper functioning of the application. ": "Kamli.net s'engage à faire de ses meilleurs efforts pour sécuriser l'accès, la consultation et l'utilisation des Services de l'Application.<br><br>L'Application est accessible 24 heures sur 24, 7 jours sur 7, sauf en cas de force majeure ou de survenance d'un événement hors du contrôle de Kamli.net et sous réserve des éventuelles pannes et interventions de maintenance nécessaires au bon fonctionnement de l'application. ",
        "Article 9 - Limitation of guarantee": "Article 9 - Limitation de garantie",
        " without warranty whatsoever.<br><br>It is the responsibility of any User to take all appropriate measures to protect their own data and / or software stored on their computer and telephone equipment against any infringement. The User declares to know and accept the characteristics and the limits of the Internet network and, in particular, the functional characteristics and technical performances of the Internet network; problems related to connection and / or access to the Internet and / or websites; problems related to network availability and congestion; problems related to network failure or saturation; issues related to transit time, access to online information, response time to view, view, query or otherwise transfer data; the risks of interruption; the lack of protection of certain data against possible hijacking or piracy; the risks of contamination by possible viruses circulating on said networks, etc. for which the responsibility of All Digital Network can not be engaged.<br><br>All Digital Network can not be held responsible:<br>- in case of default, loss, delay or data transmission error that are beyond his control.<br>- sending messages and / or data and to a false, incorrect or incomplete address.<br>- if data did not reach him, for whatever reason, or if the data he received was illegible or impossible to process.<br>- in the event that the User fails to access or use the Site, the Application and / or the Services for any reason whatsoever.<br>- if for any reason the connection should be interrupted.<br><br>In addition, All Digital Network declines any responsibility in case of improper use of the terminal and / or incident related to the use of the terminal when using the Application. In no event will All Digital Network be liable for any damages of any nature whatsoever caused to Users, their terminals, their computer and telephone equipment and the data stored therein, or the consequences that may result therefrom. their personal, professional or commercial activity.": "L'accés et l'utilisation de l'Application se font aux risques et périls de l'utilisateur. L'application et le logiciel sont fournis te quel et comme disponible sans garantie quelle qu'elle soit.<br><br>Il est de la responsabilité de chaque Utilisateur de prendre toutes des mesures appropriées de façon à protéger ses propres données et / ou logiciels stockés sur ses équipements informatiques et téléphoniques contre toute atteinte. L'Utilisateur déclare connaître et accepter les caractéristiques et les limites du réseau Internet et, notamment , les caractéristiques fonctionnelles et performances techniques du réseau Internet; les problèmes liés à la connexion et / ou d'accès au réseau Internet et / ou aux sites web, les problèmes liés à la disponibilité et l'encombrement des réseaux; les problèmes liés à la défaillance ou de la saturation des réseaux; les problèmes liés aux temps de transit, à l'accès aux informations mises en ligne, aux temps de réponse pour afficher, consulter, visualiser, interroger ou transférer des données, les risques d'interruption; le l'absence de protection de certaines données contre des détournements éventuels ou piratage, les risques de contamination par d'éventuels virus circulant sur les dits réseaux, etc... pour lesquels la responsabilité de Kamli.net ne saurait être engagée.<br><br>Kamli.net ne peut être tenue pour responsable:<br>- en cas de défaut, de perte, de retard ou d'erreur de transmission de données qui sont indépendant de sa volonté.<br>- de l'envoi de messages et / ou de données à une adresse fausse, erronée ou incomplète.<br>- si les données ne lui parvenaient pas, pour quelque raison que ce soit, ou si les données qu'elle reçoit étaient illisibles ou impossible à traiter.<br>- dans le cas oû l'Utilisateur ne parvient pas à accéder ou utiliser le Site, l'Application et / ou les Services pour une raison quelconque. \n<br>- si, pour quelque raison que ce soit , la connexion devait être interrompue.<br><br>Par ailleurs, Kamli.net décline toute la responsabilité en cas de mauvaise utilisation du terminal et / ou d'incident lié à l'utilisation du terminal lors de l'utilisation de l'Application. En aucun cas, Kamli.net ne saurait être tenue responsable de tout dommage de quelque nature que ce soit causé aux Utilisateurs, à leurs terminaux, à leurs équipements informatique et téléphoniques et aux données qui y sont stockées, ni des conséquences  pouvant en découler sur leur activité personnelle, professionnelle ou commerciale.",
        "Article 10 - Evolution of the Terms": "Article 10 - Évolution des CGU",
        "The applicable Terms and Conditions are those in force on the date of the connection and use of the Application by the User. ALL DIGITAL NETWORK reserves the right to modify, at any time, all or part of the provisions of the Terms and Conditions without prior notice or information to Users to adapt to changes in services, technical developments, legal or jurisprudential or when setting in place of new benefits.<br><br>Any modifications made by All Digital Network to the GTU will be brought to the attention of Users by their simple upload. They are deemed accepted without reservation by any User who accesses the Application after the posting. All Digital Network therefore invites any User to regularly consult the Terms of Use. Any new Service incorporating new techniques or new features improving the quality of existing services will also be subject to these Terms, unless expressly provided otherwise.": "Les CGU applicables sont celles en vigueur à la date de la connexion et de l'utilisation de l'Application par l'Utilisateur. Kamli.net se réserve le droit de modifier, à tout moment, tout ou partie des mentions légales et conditions d'utilisation, sans préavis ni information préalable des Utilisateurs afin de les adapter aux évolutions des services, aux évolutions techniques , légales ou jurisprudentielles ou lors de la mise en place de nouvelles prestations.<br><br>Toute modification éventuellement apportées par Kamli.net aux CGU seront portées à la connaissance des Utilisateurs par leur simple mise en ligne. Elles sont réputées acceptées sans réserve par tout Utilisateur qui accède à l'Application postérieurement à ladite mise en ligne. Kamli.net invite donc tout Utilisateur à consulter régulièrement les CGU. Tout nouveau Service en intégrant de nouvelles techniques ou de nouvelles fonctionnalités améliorant  la qualité des services existants seront également soumis aux présentes CGU, sauf disposition expresse contraire.",
        "Article 11 - Termination": "Article 11 - Résiliation",
        "All Digital Network may terminate the use of the Application at any time. The rights and licenses that have been granted will be terminated and the User must cease all use of the Application.": "Kamli.net peut mettre fin à l'utilisation de l'Application à tout moment. Les droits et les licences qui ont été accordées seront résiliés et l'utilisateur devra cesser toute utilisation de l'Application.",
        "Article 12 - Contact": "Article 12 - Contact",
        "Any questions relating to the Application and / or the Services must be addressed by making his request by email to contact@alldigitalnetwork.com or by post to the following address:<br><br>All Digital Network<br>World Trade Center / Bat J<br>1300 ridge road<br>06560 Sophia Antipolis, France<br><br>These Terms are subject to French law.": "Toutes les questions relatives à l'Application,  aux Services et à l'utilisation de vos données personnelles doit être adressée en effectuant sa demande par courrier électronique à contact@alldigitalnetwork.com ou par courrier postale à l'adresse suivante:<br><br>All Digital Network<br>World Trade Center / Bat J<br>1300 route des crêtes<br>06560 Sophia Antipolis, France<br><br>Les présentes CGU sont soumises au droit Français.",
        " Application on  your terminal and / or accessing the Application, as a visitor and / or user, you accept unconditionally and  without reservation all the terms and conditions set out below. If you do not wish to  accept these Terms, we ask you not to access the Application. Any visit and / or use of the Application must  comply with these Terms.": " Application sur votre terminal et / ou de l'accès à l'Application, en tant que visiteur et / ou utilisateur, vous acceptez sans condition et sans réservation tous les termes et conditions énoncées ci-dessous. Si vous ne souhaitez pas acceptez les présentes Modalités, nous vous demandons de ne pas accéder à l'Application. Toute visite et / ou de l'utilisation de l'Application doit se conformer à ces Conditions.",
        " means a natural person  of age or majority who has previously obtained the authorization of his parents or the person having parental  authority,  and who has downloaded the Application for his own needs, for a strictly personal use. and non-commercial,  not-for-profit direct or indirect.": " désigne une personne physique de l'âge de la majorité ou qui a obtenu au préalable l'autorisation de ses parents ou de la personne ayant parental\nl'autorité, et qui a téléchargé l'Application pour ses propres besoins, pour un usage strictement personnel. et non commercial, non-pour-bénéfice, direct ou indirect.",
        "The use of the geolocation feature of the  Application requires the express prior consent of the user to be geolocated. For this the User must activate,  if desired, the geolocation function directly in the settings of his mobile terminal  and accept that the Application may use it. This feature can, at any time, and without charge, be disabled or  activated by the User.": "L'utilisation de la fonction de géolocalisation de l' L'Application nécessite l'autorisation préalable et expresse de l'utilisateur pour être géolocalisée. Pour cela, l'Utilisateur doit activer, si vous le souhaitez, la fonction de la géolocalisation directement dans les paramètres de son terminal mobile et accepter que l'Application peut utiliser. Cette fonctionnalité peut, à tout moment et sans frais, à l'être désactivé ou activé par l'Utilisateur.",
        "Kamli is offered free of charge to the  User, excluding subscription costs, from the mobile operator, excluding connection costs and access to the  Internet and any additional costs charged for data loading.": "Kamli est offert gratuitement à l' L'utilisateur, à l'exclusion des frais d'abonnement, à partir de l'opérateur de téléphonie mobile, hors coûts de connexion et de l'accès à l' Internet et tous les frais supplémentaires facturés pour le chargement des données.",
        "The Terms are applicable to any Kamli  User. The User is invited to read carefully and at each visit the Terms that are accessible by hyperlink on  the home page of the Application and may be modified at any time and without notice by All  Digital Network.<br>The Application may be updated regularly.": "Les Conditions sont applicables à toute Kamli De l'utilisateur. L'Utilisateur est invité à lire attentivement et à chaque visite, les Termes qui sont accessibles par lien hypertexte sur la page d'accueil de l'Application et peuvent être modifiées à tout moment et sans préavis par Tous Réseau Numérique.<br>L'Application peut être mise à jour régulièrement.",
        "All Digital Network is the exclusive owner  of all the intellectual property rights related to the Kamli Application, none of the provisions of the GCU  can be interpreted as an assignment, a transfer, a sale, a concession, a license, a  loan, a rental , an operating license granted directly or indirectly by All Digital Network for the benefit  of the User on the Application its Content and / or Services.": "Tout Réseau Numérique est le propriétaire exclusif de tous les droits de propriété intellectuelle liés à la Kamli Application, aucune des dispositions des CGU peut être interprété comme une cession, un transfert, d'une vente, d'une concession, d'une licence, d'un prêt, d'une location , d'une licence d'exploitation accordée, directement ou indirectement, par Tout Réseau Numérique pour le bénéfice de l'Utilisateur sur l'Application de son Contenu et / ou de Services.",
        "All Digital Network grants to the User a  personal right to use the Application, the Content and the Services, non-exclusive, revocable,  non-transferable, non-transferable, worldwide and free only for his own needs within the framework  of the use of the Application and Services, to the exclusion of any other purpose.<br><br>It is strictly  forbidden for the User to access and / or use the source code of the Application and / or the software  components of the Application.  The User does not acquire any intellectual property rights in the Application, the Content and / or the  Services or any rights other than those conferred by the present. This license does not confer any right of  use on the Content  by the User. The User is therefore prohibited from reproducing, representing, adapting and / or exploiting  the one and the other Content. The User expressly undertakes that the use of the Application does not in any  way affect the  rights of All Digital Network, and in particular that such use does not constitute an act of counterfeiting,  unfair or parasitic competition content.": "Tout Réseau Numérique accorde à l'Utilisateur un droit personnel d'utilisation de l'Application, le Contenu et les Services, non-exclusive, révocable, non-transférable, non cessible, dans le monde entier et gratuit uniquement pour ses propres besoins dans le cadre de l'utilisation de l'Application et des Services, à l'exclusion de toute autre finalité.<br><br>Il est strictement interdit à l'Utilisateur d'accéder et / ou utiliser le code source de l'Application et / ou le logiciel les composants de l'Application. L'Utilisateur n'acquiert aucun des droits de propriété intellectuelle dans l'Application, le Contenu et / ou la Services ou les droits autres que ceux qui sont conférés par le présent. Cette licence ne confère aucun droit de l'utilisation du Contenu par l'Utilisateur. L'Utilisateur est donc interdit de reproduire, représenter, adapter et / ou l'exploitation de l'un et l'autre Contenu. L'Utilisateur s'engage expressément que l'utilisation de l'Application n'est pas en aucune incidence sur la les droits de Tout Réseau Numérique, et, en particulier, que cette utilisation ne constitue pas un acte de contrefaçon, concurrence déloyale ou parasitaire contenu.",
        ") of all or part of the Application, Services and / or Content.<br>&nbsp;- not to export the  Application, to merge all or part of the Application with other computer programs.<br>&nbsp;- to make short  quotations, analyzes  and reproductions for press reviews and other uses expressly authorized by law within the limits and  conditions laid down by the law and subject, inter alia, to mentioning the names of the authors and the  editorial source<br>&nbsp;-  to expressly waive the use of software or devices likely to disrupt the proper functioning of the  Application, or to take any action likely to impose a disproportionate burden on the infrastructures of All  Digital Network.<br>&nbsp;-  not to extract or reuse, including for private purposes, without the prior written permission of All Digital  Network, a substantial part or not of the contents of databases and archives constituted by the Application.<br>&nbsp;-  not  to put in place systems likely to hack the Application and / or the Content in whole or in part, or likely to  violate these Terms.<br>&nbsp;- to inform All Digital Network as soon as it becomes aware of an act of piracy  and in particular  any unlawful or non-contractual use of the Application and / or the Content regardless of the method of  dissemination.<br>&nbsp;- not to sell, rent, sublicense or otherwise distribute the Application and / or  Content to third parties.": ") de tout ou partie de l'Application, des Services et / ou Contenus.<br> - pas à l'exportation de l' Application, fusionner tout ou partie de l'Application avec d'autres programmes informatiques.<br> - pour faire court citations, analyse et les reproductions des revues de presse et de d'autres utilisations expressément autorisées par la loi dans les limites et conditions fixées par la loi et sous réserve, notamment, de mentionner les noms des auteurs et de la éditorial source<br>- à renoncer expressément à l'utilisation d'un logiciel ou d'appareils susceptibles de perturber le bon fonctionnement de l' L'Application, ou de prendre toute mesure susceptible d'imposer une charge disproportionnée sur les infrastructures de Tous les Réseau Numérique.<br>- ne pas extraire ou réutiliser, y compris à des fins privées, sans autorisation écrite préalable de Tous les Numériques Réseau, une partie substantielle ou non du contenu des bases de données et archives constituées par l'Application.<br>-\npas mettre en place des systèmes de chances de pirater l'Application et / ou le Contenu, en tout ou en partie, ou susceptibles de l' viole ces Conditions.<br> - à informer l'Ensemble du Réseau Numérique dès qu'il a connaissance d'un acte de piraterie et en particulier d'une manière illicite ou non-contractuelle de l'utilisation de l'Application et / ou le Contenu indépendamment de la méthode de la diffusion.<br> - ne pas vendre, louer, concéder en sous-licence ou distribuer l'Application et / ou Contenu à des tiers.",
        "All Digital Network is committed to making  its best efforts to secure access, consultation and use of the Application Services.<br><br>The Application  is accessible 24 hours a day, 7 days a week, except in case of force majeure or the  occurrence of an event beyond the control of All Digital Network and subject to any breakdowns and  maintenance operations necessary for the proper functioning of the application. ": "Tout Réseau Numérique est engagé à faire de l' ses meilleurs efforts pour sécuriser l'accès, la consultation et l'utilisation des Services d'Application.<br><br>L'Application est accessible 24 heures par jour, 7 jours par semaine, sauf en cas de force majeure ou de survenance d'un événement hors du contrôle de l'Ensemble du Réseau Numérique et sous réserve des éventuelles pannes et les opérations de maintenance nécessaires au bon fonctionnement de l'application. ",
        "  without warranty whatsoever.<br><br>It is the responsibility of any User to take all appropriate  measures to protect their own data and / or software stored on their computer and telephone equipment against  any infringement. The User declares to know and accept the characteristics and the limits of the Internet  network and, in  particular, the functional characteristics and technical performances of the Internet network; problems  related to connection and / or access to the Internet and / or websites; problems related to network  availability and congestion;  problems related to network failure or saturation; issues related to transit time, access to online  information, response time to view, view, query or otherwise transfer data; the risks of interruption; the  lack of protection of certain  data against possible hijacking or piracy; the risks of contamination by possible viruses circulating on said  networks, etc. for which the responsibility of All Digital Network can not be engaged.<br><br>All Digital  Network can not  be held responsible:<br>- in case of default, loss, delay or data transmission error that are beyond his  control.<br>- sending messages and / or data and to a false, incorrect or incomplete address.<br>- if data  did not reach him,  for whatever reason, or if the data he received was illegible or impossible to process.<br>- in the event  that the User fails to access or use the Site, the Application and / or the Services for any reason  whatsoever.<br>- if for any  reason the connection should be interrupted.<br><br>In addition, All Digital Network declines any  responsibility in case of improper use of the terminal and / or incident related to the use of the terminal  when using the Application.  In no event will All Digital Network be liable for any damages of any nature whatsoever caused to Users,  their terminals, their computer and telephone equipment and the data stored therein, or the consequences that  may result therefrom.  their personal, professional or commercial activity.": " sans garantie que ce soit.<br><br>Il est de la responsabilité de chaque Utilisateur de prendre toutes les mesures des mesures pour protéger leurs propres données et / ou logiciels stockés sur son ordinateur et le téléphone de l'équipement contre les toute infraction. L'Utilisateur déclare connaître et accepter les caractéristiques et les limites de l'Internet réseau et, dans en particulier, les caractéristiques fonctionnelles et performances techniques du réseau Internet; des problèmes à propos de la connexion et / ou l'accès à Internet et / ou des sites web, les problèmes liés au réseau la disponibilité et la congestion; les problèmes liés à la défaillance du réseau ou de la saturation; les questions relatives à temps de transit, l'accès en ligne aux l'information, le temps de réponse pour consulter, visualiser, interroger ou transférer des données, les risques d'interruption; le l'absence de protection de certaines données contre des détournements éventuels ou piratage, les risques de contamination par d'éventuels virus circulant sur ladite réseaux, etc. pour ce qui de la responsabilité de Tous de Réseau Numérique ne peut pas être engagée.<br><br>Toutes Les Numériques Le réseau ne peut pas être tenue pour responsable:<br>- en cas de défaut, la perte, le retard ou la transmission de données d'erreur qui sont au-delà de son de contrôle.<br>- l'envoi de messages et / ou de données et d'un faux, adresse erronée ou incomplète.<br>- si les données ne pas l'atteindre, pour quelque raison que ce soit, ou si les données qu'il a reçues étaient illisibles ou impossible à traiter.<br>- dans le cas que l'Utilisateur ne parvient pas à accéder ou utiliser le Site, l'Application et / ou des Services pour une raison quelconque que ce soit.<br>- si, pour tout la raison, la connexion sera interrompue.<br><br>En outre, Tous les Réseau Numérique décline toute la responsabilité en cas de mauvaise utilisation du terminal et / ou d'incident lié à l'utilisation de la borne lors de l'utilisation de l'Application. En aucun cas, Tout Réseau Numérique sera responsable de tout dommage de quelque nature que ce soit causé aux Utilisateurs, leurs bornes, leur ordinateur et de l'équipement téléphonique et les données qui y sont stockées, ni des conséquences que peuvent en résulter. leur activité personnelle, professionnelle ou commerciale de l'activité.",
        "The applicable Terms and Conditions are  those in force on the date of the connection and use of the Application by the User. ALL DIGITAL NETWORK  reserves the right to modify, at any time, all or part of the provisions of the Terms and  Conditions without prior notice or information to Users to adapt to changes in services, technical  developments, legal or jurisprudential or when setting in place of new benefits.<br><br>Any modifications  made by All Digital Network  to the GTU will be brought to the attention of Users by their simple upload. They are deemed accepted without  reservation by any User who accesses the Application after the posting. All Digital Network therefore invites  any User to  regularly consult the Terms of Use. Any new Service incorporating new techniques or new features improving  the quality of existing services will also be subject to these Terms, unless expressly provided otherwise.": "Les Termes et Conditions applicables sont celles en vigueur à la date de la connexion et de l'utilisation de l'Application par l'Utilisateur. TOUT RÉSEAU NUMÉRIQUE se réserve le droit de modifier, à tout moment, tout ou partie des dispositions des Termes et Conditions d'utilisation, sans préavis ni information aux Utilisateurs de s'adapter aux changements dans les services techniques l'évolution, légales ou jurisprudentielles ou lors de la mise en place de nouvelles prestations.<br><br>Toute modification faite par Tout Réseau Numérique pour les CGU seront portées à la connaissance des Utilisateurs par leur simple téléchargement. Elles sont réputées acceptées sans réserve par tout Utilisateur qui accède à l'Application après l'affichage. Tout Réseau Numérique invite donc tout Utilisateur consulter régulièrement les Conditions d'Utilisation. Tout nouveau Service en intégrant de nouvelles techniques ou de nouvelles fonctionnalités de l'amélioration de la qualité des services existants seront également soumis à ces Conditions, sauf disposition expresse contraire.",
        "All Digital Network may terminate the use  of the Application at any time. The rights and licenses that have been granted will be terminated and the  User must cease all use of the Application.": "Tout Réseau Numérique peut mettre fin à l'utilisation de l'Application à tout moment. Les droits et les licences qui ont été accordées pourra être résilié et l' L'utilisateur doit cesser toute utilisation de l'Application.",
        "Any questions relating to the Application  and / or the Services must be addressed by making his request by email to contact@alldigitalnetwork.com or by  post to the following address:<br><br>All Digital Network<br>World Trade Center / Bat  J<br>1300 ridge road<br>06560 Sophia Antipolis, France<br><br>These Terms are subject to French law.": "Toutes les questions relatives à l'Application et / ou les Services doit être adressée en effectuant sa demande par courrier électronique à contact@alldigitalnetwork.com ou par la poste à l'adresse suivante:<br><br>Tout Réseau Numérique<br>World Trade Center / Bat J<br>1300 route des crêtes<br>06560 Sophia Antipolis, France<br><br>Les présentes Conditions sont soumises au droit français."
    },
    "settings.component": {
        "Settings": "Réglages",
        "Language": "Langue",
        "Location Service": "service de localisation",
        "Customer Service": "Service Client",
        "APP INFORMATION": "Information App",
        "Select environment": "Selectionner environement",
        "Legal Notices": "Informations Legales",
        "Version": "Version",
        "More": "Plus",
        "Select language": "Sélectionnez la langue",
        "utilSvc.language==": "utilSvc.langue==",
        "utilSvc.language=": "utilSvc.langue=",
        "Cancel": "Annuler",
        "Confirm": "Confirmer",
        "You can contact us anytime from": "Vous pouvez nous contacter à tout moment à partir de",
        "Monday": "Lundi",
        "Friday": "Vendredi",
        "If you want more information about us, click on links below:": "Si vous souhaitez plus d'informations sur nous, cliquez sur les liens ci-dessous:",
        "Our website": "Notre site web",
        "Our Facebook page": "Notre Facebook page",
        "Our LinkedIn page": "Notre page LinkedIn",
        "Call": "Appel"
         
    },
    "myaccount.component": {
        "Name": "Nom",
        "Mobile Number": "Numéro De Téléphone Mobile",
        "If you don't want to receive notifications about exclusive offers, discounts, special sales ... check this box": "Si vous ne souhaitez pas recevoir de notifications à propos des offres exclusives, des réductions, des offres spéciales ... cochez cette case",
        "Change password": "Changer de mot de passe",
        "If you don": "Si vous ne",
        "Phone": "Telephone",
        "Addresses": "Addresses",
        "My QR code": "Mon QR code",
        "Settings": "Réglages",
        "My Account": "Mon Compte",
        "Change": "Changement",
        "xxxx": "xxxx",
        " / ": " / ",
        "Password": "Mot de passe",
        "Change your Name": "Changer votre Nom",
        "Present   name": "Présent nom",
        "Cancel": "Annuler",
        "Confirm": "Confirmer",
        "Change your Email": "Changer votre adresse de Courriel",
        "Present   email": "Présent e-mail",
        "New   email": "Nouveau e-mail",
        "Change your Phone Number": "Changer votre Numéro de Téléphone",
        "Present   phone": "Présent téléphone",
        "New   phone": "Nouveau téléphone",
        "Add a new address": "Ajouter une nouvelle adresse",
        "Full Address": "Adresse Complète",
        "Nickname": "Surnom",
        "Extra info": "Des infos supplémentaires",
        "Add a new credit card": "Ajouter un nouveau crédit carte",
        "address in free text": "adresse en texte libre",
        "nickname": "surnom",
        "floor, stairs, door code...": "étage, les escaliers, le code de la porte..."
         
    },
    "privacy.component": {
        "font-family: ": "font-family: ",
        "Privacy Policy": "Politique De Confidentialité",
        "Close": "Fermer",
        ">contact@alldigitalnetwork.com</a>.": "&gt;contact@alldigitalnetwork.com</a>.",
        "Responsability<br>": "Responsabilité<br>",
        "It is the Customer": "Client"
         
    },
    "resetpassword.component": {
        "font-family: ": "font-family: ",
        "Change password": "Changer de mot de passe",
        "Back": "Retour",
        "Save": "Enregistrer",
        "Previous password": "Ancien mot de passe",
        "New password": "Nouveau mot de passe",
        "Confirm new password": "Confirmer le nouveau mot de passe",
        "Forgot password ?": "Mot de passe oublié ?"
         
    },
    "moreli.component": {
        "My Account": "Mon Compte",
        "Language": "Langue",
        "Location Service": "Géolocalisation",
        "Customer Service": "Service Client",
        "APP INFORMATION": "INFORMATIONS SUR L'APPLI",
        "Legal Notices": "Mentions légales",
        "Select Environment": "Sélectionnez L'environnement",
        "Version": "Version",
        "Select language": "Sélectionnez la langue",
        "utilSvc.language==": "utilSvc.langue==",
        "utilSvc.language=": "utilSvc.langue=",
        "Cancel": "Annuler",
        "Confirm": "Confirmer",
        "Select environment": "Sélectionnez l'environnement",
        "You can contact us anytime from": "Vous pouvez nous contacter à tout moment à partir de",
        "If you want more information about us, click on links below:": "Si vous souhaitez plus d'informations sur nous, cliquez sur les liens ci-dessous:",
        "Our website": "Notre site web",
        "Our Facebook page": "Notre page Facebook",
        "Our LinkedIn page": "Notre page LinkedIn",
        "Call": "Nous contacter",
        "Home": "Retour",
        "Monday": "Lundi",
        "Friday": "Vendredi",
        "More": "Plus",
        "Scan QR Code": "Scanner Code QR",
        "Settings": "Réglages",
        "My Open Carts": "Mes Paniers Ouverts",
        "My Adverts": "Mes Petites Annonces",
        "Scan QR code": "Scanner Code QR"
    },
    "morelo.component": {
        "Settings": "Paramètres",
        "More": "Plus",
        "Language": "Langue",
        "Location Service": "Service de géolocalisation",
        "Customer Service": "Service Client",
        "APP INFORMATION": "INFORMATIONS SUR L'APPLI",
        "Legal Notices": "Mentions légales",
        "Select Environment": "Sélectionnez l'environnement",
        "Version": "Version",
        "Select language": "Sélectionnez la langue",
        "utilSvc.language==": "utilSvc.langue==",
        "utilSvc.language=": "utilSvc.langue=",
        "You can contact us anytime from": "Vous pouvez nous contacter à tout moment à partir de",
        "If you want more information about us, click on links below:": "Si vous souhaitez plus d'informations sur nous, cliquez sur les liens ci-dessous:",
        "Home": "Retour",
        "Scan QR code": "Scanner Code QR"
         
    },
    "tandc.component": {
        "font-family: ": "font-family: ",
        "Terms and Conditions": "Conditions générales de prestation de service",
        "Date of the last update on: 12/03/19": "Date de la dernière mise à jour le: 12/03/19",
        "Legal Notice": "Mentions légales",
        "Article 1 - Definitions": "Article 1 - Définitions",
        "Article 2 - Subject": "Article 2 - Objet",
        "Article 4 - Your status": "Article 4 - Votre statut",
        "Article 5 - The order": "Article 5 - La commande",
        ">Description of the steps of the   Order: in order to carry out the Order, the Customer must obligatorily follow the following steps:<br>-   Connect to the Site or application available for free in Apple": "&gt;Descriptif des étapes de la Commande: pour l'exécution de la Commande, le Client devra obligatoirement suivre les étapes suivantes:<br>- Se connecter au Site ou à l'application disponible gratuitement sur Apple store",
        " and Google": " et Google play store en saisissant son identifiant et son mot de passe",
        "Article 6 - Prices": "Article 6 - Tarifs",
        "Article 7 - Payment": "Article 7 - Paiement",
        ">All-inclusive price is paid:<br>-   or on the spot according to the various means of payment that the Restaurant puts at the disposal   of the Customer.<br>- or for remote payment via the payment platform ": "&gt;Prix forfaitaire est versée:<br>- ou sur place selon les différents moyens de paiement que le Restaurant met à la disposition du Client.<br>- ou pour le paiement à distance via la plateforme de paiement ",
        " Stripe ": " Bande ",
        "Stripe accepts any type of payment (including bank cards, Paypal, Paylib,   ticket restaurant, etc ...).<br>In accordance with Article L. 132-2 of the Monetary and Financial   Code, the commitment to pay given by means   of a payment card is irrevocable. By providing the information relating to his credit card, the   Customer authorizes ": "Bande accepte tout type de paiement (y compris les cartes bancaires, Paypal, Paylib, ticket restaurant, etc ...).<br>Conformément à l'Article L. 132-2 du Monétaire et Financier Code, l'engagement de payer donné au moyen d'une carte de paiement est irrévocable. En fournissant les informations relatives à sa carte de crédit, à la Le client autorise ",
        "Article 8 - Cancellation and modification of an Order": "Article 8 - Annulation et modification d'une commande",
        "Article 9 - Complaints": "Article 9 - Réclamations",
        "Article 10 - Products collection or delivery": "Article 10 - Retrait ou livraison des produits",
        "Article 11 - Unsubscription - Account deletion": "Article 11 - Désinscription - Suppression du Compte",
        "Article 13 - Applicable Law - Jurisdiction": "Article 13 - Loi Applicable - Juridiction",
        "Article 14 - Intellectual property": "Article 14 - propriété Intellectuelle"
    },
    "allproducts.component": {
        "Back": "Retour",
        "All Products": "Tous les produits",
        "searchedProduct=": "searchedProduct=",
        "Cancel": "Annuler",
        "EUR": "EUR",
        "let category of storeCategories|filterGenericN:": "laissez la catégorie dans Categories|filterGenericN:",
        "let product of storeProducts  | filterGenericN:": "laissez le produit dans Produits | filterGenericN:",
        ":category.categoryId | filterGenericPS:": ":catégorie.categoryId | filterGenericPS:",
        "Find a product": "Trouver un produit",
        "let product of storeProducts   | filterGenericN:": "laissez le produit de storeProducts  | filterGenericN:",
        ":category.categoryId  | filterGenericPS:": ":catégorie.categoryId | filterGenericPS:"
    },
    "basket.component": {
        "Back": "Retour",
        "allergy\r info": "Les allergènes",
        "EUR": "EUR",
        "Change": "Modifier",
        "ALLERGY information": "Information sur les ALLERGIES",
        "If you are allergic we strongly advise you not to take the slightest risk and contact the restaurant before making any order.": "Si vous êtes allergique, nous vous conseillons fortement de ne pas prendre le moindre risque et contactez le restaurant en cas de doute avant de commander.",
        "CLEAR Cart": "VIDER le panier",
        "Are you sure you want to clear this cart?": "Êtes-vous sûr de vouloir vider le panier?",
        " button, this cart will be definitively cleared.": " bouton, ce panier sera définitivement vidé.",
        "Go back": "Retour",
        "Confirm": "Confirmer",
        "allergy  info": "allergie info"
    },
    "basket-edit.component": {
        "Back": "Retour",
        "Edit Cart": "Modifieer le Panier",
        "EUR": "EUR",
        "Change": "Changer",
        "Edit": "Modifier",
        "Option(s)": "Option(s)"
         
    },
    "categories.component": {
        "Back": "Retour",
        "storeCart.deliveryDetails.type==": "storeCart.deliveryDetails.type==",
        "EUR": "EUR",
        "1.2-2": "1.2-2",
        "Menu": "Menu",
        "Ads": "Annonces",
        "Reviews": "Commentaires",
        "Info": "Info",
        "Filter delivery type": "Filtrer par mode de commande",
        "Sur Place": "Réserver",
        "fr": "fr",
        "A Emporter": "A emporter",
        "Livraison": "A livrer",
        "Express Paiment": "Paiement express",
        "Look for a specfic product": "Recherchez un produit spécifique",
        "let category of storeCategories|filterGenericN:": "laissez la catégorie dans Categories|filterGenericN:",
        ":1|filterGenericN:": ":1|filterGenericN:",
        "REQUEST   TO ADVERTISE NOW": "PASSER VOTRE PETITE ANNONCE",
        "Price starts from": "Prix de départ",
        "per": "par",
        "Special promotion : first advert offered": "Promotion spéciale : première annonce offerte",
        "ADVERTISER": "ANNONCEUR",
        "CAMPAIGN TITLE": "NOM DE LA CAMPAGNE",
        "dd/MMMM/yy": "jour/Mois/année",
        "Information": "Informations",
        "Delivery types": "Modes de commande",
        "Express Paiement": "Paiement express",
        "Delivery fees": "Frais de livraison",
        "Minimum order amount": "Montant minimum de la commande",
        "Average delivery time": "Délai moyen de livraison",
        "Opening times": "Horaires d'ouverture",
        "let day of shopSvc.mainSvc.smbStore.opening_hours[": "Jour d'ouvertureSvc.mainSvc.smbStore.opening_hours[",
        "Search latest adverts ....": "Rechercher dernières annonces ....",
        "Directions": "Les Directions",
        "Express   Paiment": "Express Paiment",
        "Price starts   from": "Le prix commence à à partir de",
        "Special promotion : first advert   offered": "Promotion spéciale : première annonce offert"
    },
    "composed-product.component": {
        "Products": "Produits",
        "Menu options": "Les options",
        "Cancel": "Annuler",
        "Confirm": "Confirmer",
        "EUR": "EUR",
        "Choose your menu item": "Choisissez votre produit",
        "Add/change menu item": "Ajouter/modifier votre produit",
        "No selection yet": "Pas de selection pour le moment",
        "Are you sure you want to leave?": "Êtes-vous sûr de vouloir quitter?",
        "If you leave, unsaved changes will be lost": "Si vous quittez, les modifications non enregistrées seront perdues",
        "Stay": "Ne pas quitter",
        "Leave": "Quitter"
    },
    "composed-product-extras.component": {
        "Cancel": "Annuler",
        "font-family: ": "font-family: "
    },
    "composed-product-options.component": {
        "Cancel": "Annuler",
        "shopSvc.productProceed.productPrep?": "shopSvc.productProceed.productPrep?",
        ":": ":",
        "font-family: ": "font-family: "
    },
    "composed-product-product.component": {
        "Cancel": "Annuler",
        "font-family: ": "font-family: ",
        "Specify your menu item": "Indiquez votre produit",
        "Select your": "Sélectionnez votre",
        "ADD TO CART": "AJOUTER AU PANIER",
        "EUR": "EUR"
    },
    "composed-product-products.component": {
        "Options": "Options",
        "Cancel": "Annuler",
        "EUR": "EUR",
        "Are you sure you want to leave?": "Êtes-vous sûr de vouloir quitter?",
        "If you leave, unsaved changes will be lost": "Si vous quittez, modifications non enregistrées seront perdues",
        "Leave": "Quitter"
    },
    "product.component": {
        "Back": "Retour",
        "EUR": "EUR",
        "Add to cart": "Ajouter au panier",
        "Choose your options": "Choisissez vos options",
        "Size": "Format",
        "Change size": "Modifier le format",
        "Specific options": "Des options spécifiques",
        "Add/change options": "Ajouter/modifier options",
        "option not yet selected": "Options pas encore choisis",
        "Extras": "Suppléments",
        "Add/change extras": "Ajouter/modifier suppléments"
    },
    "productdeliverytype.component": {
        "Back": "Retour",
        "Delivery type": "TMode de commande",
        "Choose your delivery type": "Choisissez votre mode de commande",
        "Sur Place": "Réserver",
        "fr": "fr",
        "deliveryType=": "deliveryType=",
        "storeCart.deliveryDetails.type===": "storeCart.deliveryDetails.type===",
        "Livraison": "A livrer",
        "A Emporter": "A Emporter",
        "Express Checkout": "commande express",
        "a delivery charge maybe added": "des frais de livraison peut-être ajouté",
        "Confirm": "Confirmer"
    },
    "productextras.component": {
        "Back": "Retour",
        "Product Name": "Nom Du Produit",
        "Extras": "Suppléments",
        "EUR": "EUR",
        "Are you sure you want to leave?": "Êtes-vous sûr de vouloir quitter?",
        "If you leave, unsaved changes will be lost": "Si vous laissez, les modifications non enregistrées seront perdues",
        "Stay": "Ne pas quitter",
        "Leave": "Quitter"
         
    },
    "productoptions.component": {
        "Back": "Retour",
        "Options": "Options",
        "Cancel": "Annuler",
        "Confirm": "Confirmer",
        "EUR": "EUR",
        "Are you sure you want to leave?": "Êtes-vous sûr de vouloir quitter?",
        "If you leave, unsaved changes will be lost": "Si vous laissez, les modifications non enregistrées seront perdues",
        "Stay": "Ne pas quitter",
        "Leave": "Quitter"
         
    },
    "products.component": {
        "Back": "Retour",
        "EUR": "EUR",
        "let product of shopSvc.mainSvc.storeProducts |filterGenericN:": "laissez le produit de shopSvc.mainSvc.storeProducts |filterGenericN:",
        ":shopSvc.activeCategory.categoryId |filterGenericS:": ":shopSvc.activeCategory.categoryId |filterGenericS:",
        "Find a product": "Trouver un produit",
        "let product of shopSvc.mainSvc.storeProducts  |filterGenericN:": "laissez le produit de shopSvc.mainSvc.storeProducts |filterGenericN:",
        ":shopSvc.activeCategory.categoryId  |filterGenericS:": ":shopSvc.activeCategory.categoryId |filterGenericS:"
    },
    "productsize.component": {
        "Options": "Options",
        "Sizes": "Format",
        "Cancel": "Annuler",
        "Confirm": "Confirmer",
        "EUR": "EUR",
        "Choose your product size": "Choisissez vle format de votre produit",
        "Are you sure you want to leave?": "Êtes-vous sûr de vouloir quitter?",
        "If you leave, unsaved changes will be lost": "Si vous quittez, les modifications non enregistrées seront perdues",
        "Stay": "Ne pas quitter",
        "Leave": "Quitter"
    },
    "pub-details.component": {
        "Back": "Retour",
        "Advert Details": "Détails de l'annonce",
        "ADDRESS": "ADRESSE",
        "PHONE": "TÉLÉPHONE",
        "Event Title": "Titre De L'Évènement",
        "Event description blah blah blah ...": "Description de l'événement bla bla bla ...",
        "Date": "Date",
        "Time": "Le temps",
        "Product Name": "Nom Du Produit",
        "shopSvc.currentPubRequest.type===": "shopSvc.currentPubRequest.type==="
    },
    "pubcreate1.component": {
        "Back": "Retour",
        "Advert Request": "Publier une annonce",
        "Continue": "Continuer",
        "Get started": "Commencer",
        "Create advert": "Créer une annonce",
        "Select dates": "Sélectionnez les dates",
        "Before you get going we need to confirm a few details": "Avant de commencer, nous avons besoin de confirmer quelques détails",
        "required fields": "Champs obligatoires",
        "Business name": "Nom de l'annonceur",
        "CATEGORY": "CATÉGORIE",
        "SUB-CATEGORY": "SOUS-CATÉGORIE",
        "Email": "E-mail",
        "PHONE": "TÉLÉPHONE",
        "WEBSITE": "SITE web"
         
    },
    "pubcreate2.component": {
        "Back": "Retour",
        "Advert Request": "Publier une annonce",
        "Continue": "Continuer",
        "Get started": "Commencer",
        "Create advert": "Créer une annonce",
        "Select dates": "Sélectionnez les dates",
        "Download your prepared advert": "Téléchargez votre annonce",
        "Campaign title": "Titre de la campagne",
        "Download a pdf, jpg or png of your full screen advert": "Télécharger au format pdf, jpg ou png de votre écran complet de l'annonce",
        "Size recommended : 1920px x 1280px": "Taille recommandée : 1920px x 1280px",
        "Maximum": "Maximum",
        "OR enter a URL for the image": "OU entrez l'URL de l'image",
        "give your campaign a reference title": "donner à votre campagne un titre de référence"
    },
    "pubcreate3.component": {
        "Back": "Retour",
        "Advert Request": "Publier une annonce",
        "Confirm": "Confirmer",
        "Get started": "Commencer",
        "Create advert": "Créer annonce",
        "Select dates": "Sélectionnez les dates",
        "Review your Fullscreen Image Advert": "Visualiser l'image de votre annonce en plein écran",
        "REFERENCE DETAILS": "DÉTAILS DE LA RÉFÉRENCE",
        "Contact name": "Nom du contact",
        "Category": "Catégorie",
        "Sub-category": "Sous-catégorie",
        "Phone": "Téléphone"
    },
    "pubcreate4.component": {
        "Back": "Retour",
        "Advert Request": "Publier une annonce",
        "EUR": "EUR",
        "Get started": "Commencer",
        "Create advert": "Créer annonce",
        "Select dates": "Sélectionnez les dates",
        "Ad Campaign Name": "Nom de la campagne",
        "Full screen image": "Image en plein écran",
        "Start date": "Date de début de",
        "number of Days": "nombre de jours"
         
    },
    "mplayout.component": {},
    "error.component": {
        "Home": "La maison"
    },
    "myadverdetails.component": {
        "Back": "De retour",
        "PHONE": "TÉLÉPHONE"
    },
    "myadverthome.component": {
        "My Adverts": "Mes Annonces",
        "Back": "De retour",
        "Accepted adverts": "Accepté de publicités",
        "Pending advert requests": "Dans l'attente de l'annonce des demandes",
        "Advert history": "Annonce histoire",
        "Advert deleted": "Annonce supprimée"
    },
    "myadvertlist.component": {
        "Back": "De retour",
        "Cancel": "Annuler",
        "EUR": "EUR"
    },
    "settings.component.1": {
        "More": "Plus",
        "My Open Carts": "Mes Chariots",
        "Settings": "Paramètres",
        "Legal Notices": "Mentions Légales"
    },
    "categories.component.1": {
        "Back": "De retour",
        "storeCart.deliveryDetails.type==": "storeCart.deliveryDetails.type==",
        "EUR": "EUR",
        "1.2-2": "1.2-2",
        "Menu": "Menu",
        "Ads": "Annonces",
        "Reviews": "Commentaires",
        "Info": "Info",
        "Filter delivery type": "Filtre type de livraison",
        "Sur Place": "Sur Place",
        "A Emporter": "A Emporter",
        "Livraison": "Livraison",
        "Express Paiment": "Express Paiement",
        "Look for a specfic product": "Recherchez un produit spécifique",
        "let category of storeCategories|filterGenericN:": "laissez catégorie de storeCategories|filterGenericN:",
        ":1|filterGenericN:": ":1|filterGenericN:",
        "REQUEST   TO ADVERTISE NOW": "DEMANDE POUR FAIRE DE LA PUBLICITÉ MAINTENANT",
        "Price starts from": "Prix commence à partir de",
        "per": "par",
        "Special promotion : first advert offered": "Promotion spéciale : première annonce offerte",
        "ADVERTISER": "ANNONCEUR",
        "CAMPAIGN TITLE": "TITRE DE LA CAMPAGNE",
        "dd/MMMM/yy": "jj/MMMM/aaaa",
        "Information": "Informations",
        "Delivery types": "Modes de livraison",
        "Express Paiement": "Express Paiement",
        "Delivery fees": "Les frais de livraison",
        "Minimum order amount": "Montant Minimum de commande",
        "Average delivery time": "Délai moyen de livraison",
        "Opening times": "Horaires d'ouverture",
        "let day of shopSvc.mainSvc.smbStore.opening_hours[": "laissez-jour de shopSvc.mainSvc.smbStore.opening_hours[",
        "Search latest adverts ....": "Rechercher dernières annonces ...."
    },
    "test": {
        "Back": "De retour",
        "storeCart.deliveryDetails.type==": "storeCart.deliveryDetails.type==",
        "EUR": "EUR",
        "1.2-2": "1.2-2",
        "Menu": "Menu",
        "Ads": "Annonces",
        "Reviews": "Commentaires",
        "Info": "Info",
        "Filter delivery type": "Filtre type de livraison",
        "Sur Place": "Sur Place",
        "fr": "fr",
        "A Emporter": "A Emporter",
        "Livraison": "Livraison",
        "Express Paiment": "Express Paiement",
        "Look for a specfic product": "Recherchez un produit spécifique",
        "let category of storeCategories|filterGenericN:": "laissez catégorie de storeCategories|filterGenericN:",
        ":1|filterGenericN:": ":1|filterGenericN:",
        "REQUEST     TO ADVERTISE NOW": "DEMANDE POUR FAIRE DE LA PUBLICITÉ MAINTENANT",
        "Price starts from": "Prix commence à partir de",
        "per": "par",
        "Special promotion : first advert offered": "Promotion spéciale : première annonce offerte",
        "ADVERTISER": "ANNONCEUR",
        "CAMPAIGN TITLE": "TITRE DE LA CAMPAGNE",
        "dd/MMMM/yy": "jj/MMMM/aaaa",
        "Information": "Informations",
        "Delivery types": "Modes de livraison",
        "Express Paiement": "Express Paiement",
        "Delivery fees": "Les frais de livraison",
        "Minimum order amount": "Montant Minimum de commande",
        "Average delivery time": "Délai moyen de livraison",
        "Opening times": "Horaires d'ouverture",
        "let day of shopSvc.mainSvc.smbStore.opening_hours[": "laissez-jour de shopSvc.mainSvc.smbStore.opening_hours[",
        "Search latest adverts ....": "Rechercher dernières annonces ...."
    },
    "index": {}
}