{
	"app.component": {},
	"cataloguehome.component": {
		"Back": "Retour",
		"[": "[",
		"Browse Product Catalogue": "Parcourir l'ensemble des produits",
		"Search a product": "Rechercher un produit",
		"ADD a product": "AJOUTER un produit"
	},
	"categories.component": {
		"Back": "Retour",
		"Categories": "Catégories"
	},
	"productadd.component": {
		"Back": "Retour",
		"Add product": "Ajouter le produit",
		"[": "[",
		"CANCEL": "ANNULER",
		"Category name": "Nom de la catégorie",
		"Main image": "Image principale",
		"Product name": "Nom du produit",
		"Description": "Description",
		"highlight?": "Promouvoir?",
		"available?": "disponible?"
	},
	"productdetails.component": {
		"Back": "Retour",
		"Product details": "Détails du produit",
		"Delete": "Supprimer",
		"Update": "Mise à jour",
		"Product name": "Nom du produit",
		"Sizes": "Formats",
		"Change suggestion title": "Changer le nom de la suggestion",
		"CANCEL": "ANNULER",
		"UPDATE": "MISE A JOUR",
		"Change suggestion description": "Changer la description de la suggestion ",
		"Change suggestion price": "Changer le prix de la suggestion"
	},
	"products.component": {
		"Back": "Retour",
		"Products": "Produits",
		"Cancel": "Annuler",
		"ADD PRODUCT": "AJOUTER UN PRODUIT"
	},
	"productsearch.component": {
		"Back": "Retour",
		"RESET": "RÉINITIALISER",
		"GO": "ALLER",
		"Search product name": "Rechercher un produit",
		"OR": "OU",
		"Select a category": "Sélectionner une catégorie",
		"and select your product": "et choisir votre produit"
	},
	"customeradrequests.component": {
		"Back": "Retour",
		"Customer Name": "Nom du client",
		"Cancel": "Annuler"
	},
	"customerdetails.component": {
		"Back": "Retour",
		"Customer": "Client",
		"Active Orders": "Activer les commandes",
		"Active ADVERTS": "Activer LES ANNONCES",
		"SEE&nbsp;ALL\n              AD REQUESTS": "VOIR TOUTES \n LES DEMANDES DE PUBLICATION D'ANNONCES"
	},
	"customerorders.component": {
		"Back": "Retour",
		"Cancel": "Annuler"
	},
	"customerslist.component": {
		"Back": "Retour",
		"Sorted by name": "Trier par nom",
		"[": "[",
		"Scan QRCODE": "Scanner le QR CODE",
		"Close": "Fermer",
		"Confirm": "Confirmer"
	},
	"footer.component": {
		"[": "["
	},
	"layout.component": {},
	"forgotpassword.component": {
		"Forgot Password": "Mot de passe oublié",
		"[": "[",
		"Back": "Retour",
		"Enter your email address and we will send you an email to reset your password": "Entrez votre adresse E-mail pour réinitialiser votre mot de passe",
		"SEND": "ENVOYER"
	},
	"login.component": {
		"Remember me": "Se souvenir de moi",
		"[": "[",
		"Forgot password?": "Mot de passe oublié?",
		"password": "Mot de passe"
	},
	"language.component": {
		"Back": "Retour",
		"Language": "Langue",
		"Change language": "Changer la langue",
		"GO": "ALLER"
	},
	"cookies.component": {
		"Back": "Retour",
		"Cookies Notice": "Utilisation des Cookies",
		"In order to recognize you immediately during your next visit and to improve your user experience we use cookies.": "Afin de vous reconnaître lors de votre prochaine visite et pour améliorer votre expérience utilisateur, nous utilisons des cookies.",
		"A cookie is a small file which does not identify you, but records information relating to navigation and allows you to benefit from our offers.": "Un cookie est un petit fichier qui ne permet pas de vous identifier, mais qui enregistre des informations relatives à la navigation et vous permet de bénéficier de nos offres.",
		"The data thus obtained is intended to facilitate navigation. &nbsp;The refusal to install a cookie may result in the impossibility of accessing certain services.": "Les données ainsi obtenues visent à faciliter votre navigation. Le refus d'installation d'un cookie peut entraîner l'impossibilité d'accéder à certains services."
	},
	"faq.component": {
		">I can not find the establishment I": "&gt;Je ne trouve pas le commerce, je",
		">When you": "&gt;Lorsque vous",
		">You have checked the availability of the merchant, your order has been finalized but you didn": "&gt;Vous avez vérifié la disponibilité du commerce, votre commande est finalisée, mais que vous n'",
		">I": "&gt;Je"
	},
	"legalhome.component": {
		"Back": "Retour",
		"[": "[",
		"End customer license": "Fin du contrat de licence client",
		"Cookies": "Les cookies",
		"Terms & Conditions": "Mentions légales & Conditions Générales d'utilisations"
	},
	"license.component": {
		">All Digital Network is committed to making its best efforts to secure access, consultation and use of the Application Services.<br>The Application is accessible 24 hours a day, 7 days a week, except in case of force majeure or the occurrence\n                    of an event beyond the control of All Digital Network and subject to any breakdowns and maintenance operations necessary for the proper functioning of the application. ": "&gt;All digital Network s'engage à faire ses meilleurs efforts pour sécuriser l'accès, la consultation et l'utilisation des Services d'Application.<br>L'Application est accessible 24 heures sur 24, 7 jours sur 7, sauf en cas de force majeure ou de survenance\n d'un événement hors du contrôle de All Digital Network et sous réserve des éventuelles pannes et les opérations de maintenance nécessaires au bon fonctionnement de l'application. "
	},
	"privacy.component": {
		"Back": "Retour",
		"Privacy policy": "Politique de confidentialité",
		"The information requested from the Customer is necessary to process the Order.<br>All Digital Network has declared the collection and processing of personal data of the Client with the CNIL under the number 2089428. All the elements relating\n                to the use of the account (Information, connection data ...) will be kept and archived by All Digital Network the time required in accordance with applicable law.<br>": "Les informations qui sont demandées au Client sont nécessaires au traitement de sa Commande.<br>All Digital Network a déclaré la collecte et le traitement des données personnelles de l'utilisateur à la CNIL sous le numéro 2089428. Tous les éléments relatifs\n pour l'utilisation du compte (Informations, données de connexion,...) seront conservés et archivés par All Digital Network le temps requis en conformité avec le droit applicable.<br>",
		"We store your personal data as long as your account exists or as needed to provide you with our services. This includes the data that you or other entities provide to us and the data generated by your use of our services. If you delete your\n                account, your user profile will no longer be visible on our service, but we will retain certain login information in a way that does not personally identify you.<br>": "Nous conservons vos données personnelles aussi longtemps que votre compte existe ou autant que nécessaire pour vous fournir nos services. Cela inclut les données que vous ou d'autres entités nous offrent et les données générées par votre utilisation de nos services. Si vous supprimez votre\n compte, votre profil utilisateur ne sera plus visible sur nos services, mais nous conservons certaines informations de connexion ne permettant pas de vous identifier.<br>",
		">contact@alldigitalnetwork.com</a>&nbsp;.<br>": "&gt;contact@alldigitalnetwork.com</a> .<br>",
		"Responsability": "Responsabilité",
		"It is the Customer": "En tant que Client"
	},
	"tc.component": {
		">Description of the steps of the Order: in order to carry out the Order, the Customer must obligatorily follow the following steps:<br>- Connect to the Site or application available for free in Apple": "&gt;Description des étapes de la Commande: pour l'exécution de la Commande, le Client devra obligatoirement suivre les étapes suivantes:<br>- Se connecter au Site ou à l'application disponible gratuitement sur Apple",
		" and Google": " et Google",
		">All-inclusive price is paid:<br>- or on the spot according to the various means of payment that the Restaurant puts at the disposal of the Customer.<br>- or for remote payment via the payment platform ": "&gt;Prix forfaitaire est versée:<br>- ou sur place selon les différents moyens de paiement que le Restaurant met à la disposition de la Clientèle.<br>- ou pour le paiement à distance via la plateforme de paiement ",
		" Stripe ": " Bande ",
		"Stripe accepts any type of payment (including bank cards, Paypal, Paylib, ticket restaurant, etc ...).<br>In accordance with Article L. 132-2 of the Monetary and Financial Code, the commitment to pay given by means\n                    of a payment card is irrevocable. By providing the information relating to his credit card, the Customer authorizes ": "Bande accepte tout type de paiement (y compris les cartes bancaires, Paypal, Paylib, ticket restaurant, etc ...).<br>Conformément à l'Article L. 132-2 du Code Monétaire et Financier, l'engagement de payer donné au moyen\n d'une carte de paiement est irrévocable. En fournissant les informations relatives à sa carte bancaire, le Client autorise "
	},
	"morehome.component": {
		"more": "plus",
		"[": "[",
		"Catalogue": "Produits",
		"CUSTOMERS": "CLIENTS",
		"SCAN": "SCANNER",
		"SETTINGS": "PARAMÈTRES"
	},
	"scanqrcode.component": {
		"Back": "Retour",
		"Scan QRcode": "Scanner le code QR ",
		"ACTIVATE": "ACTIVER"
	},
	"showqrcode.component": {
		"Back": "Retour",
		"scan QR": "Scanner le code QR",
		"RESCAN": "RE SCANNER",
		"CONFIRM": "CONFIRMER",
		"Scan Result": "Résultats du scanner"
	},
	"selectstore.component": {
		"Back": "Retour",
		"Store": "Commerce",
		"Choose your store": "Choisissez votre commerce",
		"GO": "ALLER"
	},
	"settings.component": {
		"Back": "Retour",
		"[": "[",
		"Change store": "Changer de commerce",
		"Change Language": "Changer la langue",
		"LEGAL": "JURIDIQUE",
		"logout": "déconnexion"
	},
	"ordersdetails.component": {
		"Back": "Retour",
		"Order Detail": "Détail de la commande",
		"Next": "Suivant",
		"FOOD DETAILS": "DÉTAILS DE LA COMMANDE",
		"Accept incoming order": "Accepter la commande en attente",
		"Your order is accepted": "Votre commande est acceptée",
		"CANCEL": "ANNULER",
		"SEND": "ENVOYER",
		"Sorry, your order is CANCELLED": "Désolé, votre commande est ANNULÉE",
		"Modify an incoming order": "Modifier une commande en attente "
	},
	"ordersfilter.component": {
		"All": "Tous",
		"Pay &amp; Dine": "Reserver",
		"Pay &amp; Collect": "A emporter",
		"Pay &amp; Deliver": "A livrer",
		"Back": "Retour",
		"Filter Orders": "Filtrer les commandes",
		"RESET": "RÉINITIALISER",
		"Filter": "Filtre"
	},
	"ordershome.component": {
		"orders": "les commandes",
		"[": "[",
		"Pending": "En attente",
		"Accepted": "Accepté",
		"Completed": "Terminé",
		"Refused": "Refusé",
		"Cancelled": "Annulé",
		"SCAN QRCODE": "SCANNER LE CODE QR"
	},
	"orderslist.component": {
		"[": "[",
		"Back": "Retour",
		"Accepted": "Accepté",
		"Cancel": "Annuler",
		"Scan QRCODE": "Scanner de CODE QR",
		"Order-id": "Référence de la commande", 
		"CANCEL": "ANNULER",
		"SEND": "ENVOYER"
	},
	"pubcreate1.component": {
		"Back": "Retour",
		"Continue": "Continuer",
		"Create ad": "Créer une annonce",
		"Get started": "Commencer",
		"Create advert": "Créer annonce",
		"Select dates": "Sélectionnez les dates",
		"Before you get going we need to confirm a few details": "Avant de commencer, nous avons besoin de confirmer quelques détails",
		"required fields": "Champs obligatoires",
		"Business name": "Nom de l'annonceur",
		"CATEGORY": "CATÉGORIE",
		"SUB-CATEGORY": "SOUS-CATÉGORIE",
		"PHONE": "TÉLÉPHONE",
		"WEBSITE": "SITE WEB"
	},
	"pubcreate2.component": {
		"Back": "Retour",
		"Continue": "Continuer",
		"Create ad": "Créer une annonce",
		"Get started": "Obtenir commencé",
		"Create advert": "Créer annonce",
		"Select dates": "Sélectionnez les dates",
		"Download your prepared advert": "Téléchargez votre annonce",
		"Campaign title": "Nom de la campagne",
		"Download a pdf, jpg or png of your full screen advert": "Télécharger une image complète de votre annonce au format pdf, jpg ou png",
		"Size recommended : 1920px x 1280px": "Taille recommandée : 1920px x 1280px",
		"OR enter a URL for the image": "OU entrez l'URL de l'image"
	},
    "pubcreate3.component": {
        "Back": "Retour",
        "Continue": "Continuer",
        "Create ad": "Créer une annonce",
        "Get started": "Commencer",
        "Create advert": "Créer une annonce",
        "Select dates": "Sélectionnez les dates",
        "Review your Fullscreen Image Advert": "Visualiser l'image de votre annonce en plein écran",
        "Ad Campaign Name": "Nom de a campagne",
        "REFERENCE DETAILS": "DÉTAILS",
        "Contact name": "Nom du contact",
        "Category": "Catégorie",
        "Sub-category": "Sous-catégorie",
        "Phone": "Téléphone"
    },
    "pubcreate4.component": {
        "Back": "Retour",
        "Create ad": "Créer une annonce",
        "Confirm": "Confirmer",
        "Get started": "Commencer",
        "Create advert": "Créer annonce",
        "Select dates": "Sélectionnez les dates",
        "Ad Campaign Name": "Nom de la campagne",
        "Start date": "Date de début",
        "number of Days": "Nombre de jours",
        "Dates not available": "Dates non disponibles",
        "We are sorry, but the following dates are not available": "Nous sommes désolés, mais les dates suivantes ne sont pas disponibles",
        "For the dates that are available the modified cost is": "Pour les dates qui sont disponibles, le tarif est modifié",
        "Continue with available dates": "Continuer avec les dates disponibles"
    },
    "publishdetails.component": {
        "Back": "Retour",
        "Request details": "Détails de la demande",
        "adSTATUS": "STATUS DE L'ANNONCE",
        "NAME": "NOM",
        "Category": "Catégorie",
        "Sub-Category": "Sous-Catégorie",
        "Pay type": "Mode de paiement",
        "commission": "Commission"
    },
    "publishfilter.component": {
        "Back": "Retour",
        "Filter ad requests": "Filtrer les demandes d'annonces",
        "RESET": "RÉINITIALISER",
        "Filter": "Filtre",
        "Customer": "Client",
        "Category": "Catégorie",
        "Sub-category": "Sous-catégorie"
    },
    "publishhome.component": {
        "Publish": "Publier",
        "[": "[",
        "Pending": "En attente",
        "Accepted": "Accepté",
        "Playing today": "Diffuser aujourd'hui",
        "Refused": "Refusé",
        "History": "Historique",
        "Create an ad": "Créer une annonce"
    },
    "publishlist.component": {
        "Back": "Retour",
        "Accept Advert": "Accepter l'annonce",
        "Refuse an ad request": "Refuser la demande d'annonce"
    },
    "boxdetails.component": {
        "Back": "Retour",
        "Box details": "Détails du player (Box Kameleon)",
        "Stop box": "Arreter le player (Box Kameleon)",
        "Start box": "Démarrer le player (Box Kameleon)",
        "Player": "Player (Box Kameleon)",
        "MODE": "MODE",
        "ACTIVE SCHEDULE": "ACTIVER LA PROGRAMMATION",
        "PLAYLIST NAME": "NOM DE LA PLAYLIST",
        "Forced Advert": "Forcer l'annonce",
        "Are you sure you want to START this box?": "Êtes-vous sûr de vouloir DEMARRER ce player (Box Kameleon)?",
        "Are you sure you want to STOP this box?": "Êtes-vous sûr de vouloir ARRÊTER ce player (Box Kameleon)?"
    },
    "boxlist.component": {
        "Back": "Retour",
        "[": "[",
        "Scan Box": "Scanner ce player (Box Kameleon)",
        "Mode": "Mode"
    },
    "changeschedule.component": {
        "Back": "Retour",
        "RESET": "RÉINITIALISER",
        "Confirm": "Confirmer",
        "Select the schedule you want to apply": "Sélectionnez le calendrier que vous souhaitez appliquer"
    },
    "forceplaylist.component": {
        "Select the playlist you want to force": "Sélectionnez la liste de lecture que vous voulez forcer",
        "Back": "Retour",
        "RESET": "RÉINITIALISER",
        "Confirm": "Confirmer"
    }
}